…
\##grouping

``` r
weather_df |> 
  group_by(name, month) |> 
  summarize(n_obs = n())
```

    ## `summarise()` has grouped output by 'name'. You can override using the
    ## `.groups` argument.

    ## # A tibble: 63 × 3
    ## # Groups:   name [3]
    ##    name           month      n_obs
    ##    <chr>          <date>     <int>
    ##  1 CentralPark_NY 2022-01-01    31
    ##  2 CentralPark_NY 2022-02-01    28
    ##  3 CentralPark_NY 2022-03-01    31
    ##  4 CentralPark_NY 2022-04-01    30
    ##  5 CentralPark_NY 2022-05-01    31
    ##  6 CentralPark_NY 2022-06-01    30
    ##  7 CentralPark_NY 2022-07-01    31
    ##  8 CentralPark_NY 2022-08-01    31
    ##  9 CentralPark_NY 2022-09-01    30
    ## 10 CentralPark_NY 2022-10-01    31
    ## # ℹ 53 more rows
…
``` r
weather_df |> 
  count(name, month) |> 
  pivot_wider(
    names_from = name,
    values_from = n
  )
```

    ## # A tibble: 21 × 4
    ##    month      CentralPark_NY Molokai_HI Waterhole_WA
    ##    <date>              <int>      <int>        <int>
    ##  1 2022-01-01             31         31           31
    ##  2 2022-02-01             28         28           28
    ##  3 2022-03-01             31         31           31
    ##  4 2022-04-01             30         30           30
    ##  5 2022-05-01             31         31           31
    ##  6 2022-06-01             30         30           30
    ##  7 2022-07-01             31         31           31
    ##  8 2022-08-01             31         31           31
    ##  9 2022-09-01             30         30           30
    ## 10 2022-10-01             31         31           31
    ## # ℹ 11 more rows
…
